@startuml
'https://plantuml.com/sequence-diagram

skinparam backgroundColor #EEEBDC
skinparam sequence {
ParticipantBorderColor DodgerBlue
ParticipantBackgroundColor DeepSkyBlue
ActorBorderColor DarkGreen
ActorBackgroundColor Green
BoxBorderColor LightBlue
BoxBackgroundColor #F0FFFF
}

skinparam ResponseMessageBelowArrow true

title MCS FSP CORR Configure Scan Band 1, 2 \n"Each FSP Corr" Details\n

box "MCS"
participant "Mid.CBF\nSubarray" as subarray
participant "FSP\nCorr\n" as fspcorr
end box

box "HPS"
participant "FSP\nCorr" as hpsfspcorr
participant "Packet\nStream\nRepair" as psr
participant "Resampler\nDelay\nTracker" as rdt 
participant "Fine\nChannel" as fc 
participant "Corner\nTurner" as ct 
participant "Corre-\nlator" as corr

group Each FSP Corr 
subarray    -> fspcorr      : ConfigureScan(\nsub_id\nfsp_id\nfunc_mode\nfs_id\nzoom_factor\nzoom window tuning\nintegration_factor\nchannel_offset\nchannel_averaging_map\noutput_link_map\noutput_host\noutput_mac\noutput_port\nconfig_id\nfreq_band\nband5tuning\nfreq_band_offset_1\nfreq_band_offset_2\nsubarray_recep_id\nfs_sample_rates\ncorr_recep_id)
fspcorr     -> hpsfspcorr   : ConfigureScan(\nsub_id\nfsp_id\nfunc_mode\nfs_id\nzoom_factor\nzoom window tuning\nintegration_factor\nchannel_offset\nchannel_averaging_map\noutput_link_map\noutput_host\noutput_mac\noutput_port\nconfig_id\nfreq_band\nband5tuning\nfreq_band_offset_1\nfreq_band_offset_2\nsubarray_recep_id\nfs_sample_rates\ncorr_recep_id\nrdt_fo_valid_int\nrdt_num_lsq_pt\nrdt_fo_fill_thresh\nrdt_fo_low_thresh\nrdt_set_input_sample_rate\nrdt_set_output_sample_rate\nfine_ch_gain\nddr4ct_min_int_time_num_samp\nddr4ct_read_threshold\nddr4ct_read_timeout_thres\ncorr_num_freq_channel)
group Each receptor to be correlated (corr_recep_id)
hpsfspcorr  -> hpsfspcorr   : calc psr packet rate
hpsfspcorr  -> psr          : Write(packet_rate)
note right                  : packet_rate=510/2/\nfs_sample_rate*450
hpsfspcorr  -> rdt          : Stop
hpsfspcorr  -> rdt          : Write(fo_valid_int\nnum_lsq_pt\nfo_fill_thresh\nfo_low_thresh)
hpsfspcorr  -> rdt          : SetInputSampleRate(set_input_sample_rate)
hpsfspcorr  -> rdt          : SetOutputSampleRate(set_output_sample_rate)
hpsfspcorr  -> rdt          : Start
hpsfspcorr  -> fc           : Write(gain)
end group Each receptor to be correlated (corr_recep_id)
group Each Corner Turner
hpsfspcorr  -> ct           : Read(number_of_samples)
hpsfspcorr  <- ct           : number_of_samples
hpsfspcorr  -> hpsfspcorr   : calc iteration length
note right                  : iteration length = min_int_time_num_samp/\n(num_samples-1)
hpsfspcorr  -> ct           : Write(iteration_length\nread_threshold\nread_timeout_thres\nclear_under_run_status\nclear_read_timeout_status)
hpsfspcorr  -> ct           : Subscribe(antenna_status)
end Each Corner Turner
hpsfspcorr  -> hpsfspcorr   : calc freq_channel_offset
hpsfspcorr  -> corr         : Write(num_freq_channel\nfreq_channel_offset\ninteg_multiple\nsub_id\nsubarray_recep_id)
hpsfspcorr  -> corr         : ProgramLta
end group Each FSP Corr

@enduml