@startuml
'https://plantuml.com/sequence-diagram

skinparam backgroundColor #EEEBDC
skinparam sequence {
ParticipantBorderColor DodgerBlue
ParticipantBackgroundColor DeepSkyBlue
ActorBorderColor DarkGreen
ActorBackgroundColor Green
BoxBorderColor LightBlue
BoxBackgroundColor #F0FFFF
}

skinparam maxMessageSize 100
skinparam ResponseMessageBelowArrow true

title PST BF HPS VCC Configure Scan\n"Each VCC" Details\n

box "MCS"
participant "VCC\n" as vcc
end box

box "HPS"
participant "VCC\nContr" as hpsvcccont
participant "VCC\nBand1&2" as hpsvccband1
participant "Circuit\nSwitch" as cs
participant "VCC" as hpsvcc
participant "WB\nInput\nBuffer" as wbib

vcc         -> hpsvcccont   : ConfigureBand(freqBand:int)
hpsvcccont  -> hpsvccband1  : On
vcc         -> hpsvccband1  : SetInternalParameters(gains)
hpsvccband1 -> hpsvcc       : Write(gain)
vcc         -> hpsvccband1  : ConfigureScan(configID, freqBand:int, fsp:JSONstr)
hpsvccband1 -> cs           : Write(input_select:array)
hpsvccband1 -> hpsvccband1  : Calc frame_count
note right                  : frame_count=(round(3960*\n1000000\n+freqOffsetK*offsetDeltaF)\n/1000000)/18
hpsvccband1 -> hpsvcc       : Write(frame_count)
hpsvccband1 -> hpsvccband1  : Calc stream_rate
note right                  : stream_rate=\n3.96e9+(freqOffsetK)*1800)/18
hpsvccband1 -> wbib         : Write(receive_enable:true, stream_rate, packet_rate:295, noise_diode:1024)

@enduml